name,position,year,nba_team,all_star_team,conference,voted_starter,all_star_starter,injured,replacement,votes,n_selection,ws,ws_48,vorp,ortg,drtg,net_rtg,ws_scale_whole_sample,ws_48_scale_whole_sample,vorp_scale_whole_sample,ortg_scale_whole_sample,drtg_scale_whole_sample,net_rtg_scale_whole_sample,whole_sample_divergence
Tracy McGrady,,2001,Orlando,East,East,yes,yes,,,"827,122",1,12.2,0.189,5.9,109,101,8,0.635943822,0.3007668632,0.8592731274,-0.3837987259,0.4225713442,-0.04932913219,1.785427299
Allen Iverson,G,2001,Philadelphia,East,East,yes,yes,,,"1,508,142",2,11.8,0.19,5.1,106,99,7,0.5183516594,0.3216113006,0.4648650619,-0.8511617156,0.8193019947,-0.1973165288,1.075651772
Vince Carter,,2001,Toronto,East,East,yes,yes,,,"1,717,687",2,12.9,0.208,6.8,114,104,10,0.8417301066,0.696811174,1.302982201,0.3951395903,-0.1725246315,0.2466456609,3.310784101
Grant Hill,,2001,Orlando,East,East,yes,yes,yes,,"904,885",6,0.3,0.126,0.1,105,102,3,-2.862423016,-1.012432694,-2.000185347,-1.006949379,0.2242060189,-0.789266115,-7.447050532
Alonzo Mourning,C,2001,Miami,East,East,yes,yes,yes,,"917,866",6,0.9,0.148,0.2,99,93,6,-2.686034772,-0.5538550706,-1.950884339,-1.941675358,2.009493946,-0.3453039253,-5.46825952
Antonio Davis,,2001,Toronto,East,East,,yes,,yes,"220,917",1,7.2,0.127,1.3,107,102,5,-0.8339582108,-0.9915882563,-1.408573249,-0.6953740523,0.2242060189,-0.4932913219,-4.198579072
Anthony Mason,,2001,Miami,East,East,,yes,,yes,"322,696",1,11.6,0.171,3.8,109,98,11,0.4595555781,-0.07443301022,-0.1760480446,-0.3837987259,1.01766732,0.3946330575,1.237576175
Stephon Marbury,G,2001,New Jersey,East,East,,,,,"512,645",1,7.8,0.147,3.7,110,109,1,-0.6575699669,-0.5746995081,-0.2253490527,-0.2280110627,-1.164351258,-1.085240908,-3.935221756
Theo Ratliff,C,2001,Philadelphia,East,East,,,yes,,"637,585",1,5.2,0.138,2.4,103,96,7,-1.421919024,-0.7622994448,-0.8662621592,-1.318524705,1.41439797,-0.1973165288,-3.151923892
Ray Allen,G,2001,Milwaukee,East,East,,,,,"409,654",2,13.7,0.211,6,119,106,13,1.076914432,0.7593444862,0.9085741356,1.174077906,-0.569255282,0.6906078506,4.040263529
Jerry Stackhouse,,2001,Detroit,East,East,,,,,"459,575",2,9.2,0.137,4.6,104,105,-1,-0.2459973977,-0.7831438822,0.2183600209,-1.162737042,-0.3708899568,-1.381215701,-3.725623959
Allan Houston,,2001,New York,East,East,,,,,"476,380",2,7.5,0.126,1.6,104,102,2,-0.7457640889,-1.012432694,-1.260670225,-1.162737042,0.2242060189,-0.9372535116,-4.894651542
Glenn Robinson,,2001,Milwaukee,East,East,,,,,,2,6.7,0.114,1.9,103,104,-1,-0.9809484141,-1.262565943,-1.1127672,-1.318524705,-0.1725246315,-1.381215701,-6.228546595
Latrell Sprewell,,2001,New York,East,East,,,,yes,"817,855",4,5.1,0.082,1.9,96,99,-3,-1.451317065,-1.92958794,-1.1127672,-2.409038348,0.8193019947,-1.677190494,-7.760599052
Dikembe Mutombo,C,2001,Atlanta,East,East,,,,,"627,148",7,8.1,0.151,2.2,108,97,11,-0.5693758449,-0.4913217584,-0.9648641756,-0.5395863891,1.216032645,0.3946330575,-0.9544824654
Tim Duncan,,2001,San Antonio,West,West,yes,yes,,,"1,096,522",3,13.2,0.2,5.9,106,94,12,0.9299242286,0.5300556747,0.8592731274,-0.8511617156,1.811128621,0.5426204541,3.82184039
Chris Webber,,2001,Sacramento,West,West,yes,yes,,,"1,306,243",3,11,0.186,4.9,105,97,8,0.2831673341,0.2382335509,0.3662630455,-1.006949379,1.216032645,-0.04932913219,1.047418065
Kobe Bryant,G,2001,Lakers,West,West,yes,yes,,,"1,433,747",3,11.3,0.196,4.4,112,105,7,0.3713614561,0.446677925,0.1197580046,0.0835642638,-0.3708899568,-0.1973165288,0.453155164
Jason Kidd,G,2001,Phoenix,West,West,yes,yes,,,"1,062,837",4,9.6,0.15,5.3,104,97,7,-0.1284052351,-0.5121661958,0.5634670782,-1.162737042,1.216032645,-0.1973165288,-0.2211252783
Shaquille O'Neal,C,2001,Lakers,West,West,yes,,yes,,"1,541,298",8,14.9,0.245,6.8,114,101,13,1.42969092,1.468055358,1.302982201,0.3951395903,0.4225713442,0.6906078506,5.709047264
Kevin Garnett,,2001,Minnesota,West,West,,yes,,,"1,003,336",4,11.8,0.176,6.2,108,99,9,0.5183516594,0.02978917684,1.007176152,-0.5395863891,0.8193019947,0.09865826438,1.933690858
Vlade Divac,,2001,Sacramento,West,West,,,,yes,"715,687",1,7.4,0.147,2.9,105,97,8,-0.7751621295,-0.5746995081,-0.6197571182,-1.006949379,1.216032645,-0.04932913219,-1.809864622
Antonio McDyess,,2001,Denver,West,West,,,,,,1,7.8,0.146,2,107,103,4,-0.6575699669,-0.5955439455,-1.063466192,-0.6953740523,0.02584069371,-0.6412787184,-3.627392181
Michael Finley,,2001,Dallas,West,West,,,,,"279,250",2,8.5,0.119,3.7,105,105,0,-0.4517836823,-1.158343756,-0.2253490527,-1.006949379,-0.3708899568,-1.233228305,-4.446544131
Rasheed Wallace,,2001,Portland,West,West,,,,,"510,543",2,11,0.18,4.5,111,100,11,0.2831673341,0.1131669265,0.1690590127,-0.07222339943,0.6209366694,0.3946330575,1.508739601
Gary Payton,G,2001,Seattle,West,West,,,,,"732,671",7,10.8,0.16,5.1,111,107,4,0.2243712528,-0.3037218217,0.4648650619,-0.07222339943,-0.7676206072,-0.6412787184,-1.095608232
David Robinson,C,2001,San Antonio,West,West,,,,,"716,228",10,12.1,0.246,4.5,114,92,22,0.6065457814,1.488899796,0.1690590127,0.3951395903,2.207859271,2.02249442,6.889997871
Karl Malone,,2001,Utah,West,West,,,,,"479,624",13,13.1,0.217,5.8,102,100,2,0.9005261879,0.8844111107,0.8099721192,-1.474312368,0.6209366694,-0.9372535116,0.8042802072
Antoine Walker,,2002,Boston,East,East,yes,yes,,,"547,172",2,6.7,0.094,4.3,99,101,-2,-0.9809484141,-1.679454691,0.07045699637,-1.941675358,0.4225713442,-1.529203098,-5.63825322
Allen Iverson,G,2002,Philadelphia,East,East,yes,yes,,,"920,502",3,6.9,0.126,3.9,101,100,1,-0.9221523328,-1.012432694,-0.1267470364,-1.630100032,0.6209366694,-1.085240908,-4.155736333
Dikembe Mutombo,C,2002,Philadelphia,East,East,yes,yes,,,"616,566",8,9.6,0.158,2.5,111,98,13,-0.1284052351,-0.3454106965,-0.816961151,-0.07222339943,1.01766732,0.6906078506,0.3452746885
Michael Jordan,,2002,Washington,East,East,yes,yes,,,"985,448",13,3.3,0.075,2.4,99,105,-6,-1.980481796,-2.075499002,-0.8662621592,-1.941675358,-0.3708899568,-2.121152684,-9.355960956
Vince Carter,,2002,Toronto,East,East,yes,,yes,,"1,470,176",3,7,0.14,3.7,107,105,2,-0.8927542921,-0.7206105699,-0.2253490527,-0.6953740523,-0.3708899568,-0.9372535116,-3.842231435
Jason Kidd,G,2002,New Jersey,East,East,,yes,,,"442,630",5,8.9,0.14,5.4,103,98,5,-0.3341915197,-0.7206105699,0.6127680864,-1.318524705,1.01766732,-0.4932913219,-1.23618271
Baron Davis,G,2002,Charlotte,East,East,,,,yes,"127,291",1,8.2,0.118,5.2,105,104,1,-0.5399778043,-1.179188193,0.5141660701,-1.006949379,-0.1725246315,-1.085240908,-3.469714846
Paul Pierce,F,2002,Boston,East,East,,,,,"254,840",1,12.9,0.187,5.7,109,99,10,0.8417301066,0.2590779883,0.760671111,-0.3837987259,0.8193019947,0.2466456609,2.543628136
Shareef Abdur-Rahim,,2002,Atlanta,East,East,,,,,"335,955",1,7.2,0.116,3,105,105,0,-0.8339582108,-1.220877068,-0.5704561101,-1.006949379,-0.3708899568,-1.233228305,-5.236359029
Jermaine O'Neal,,2002,Indiana,East,East,,,,,"411,422",1,6.4,0.113,1.5,102,101,1,-1.069142536,-1.28341038,-1.309971233,-1.474312368,0.4225713442,-1.085240908,-5.799506081
Tracy McGrady,,2002,Orlando,East,East,,,,,"453,276",2,11.5,0.189,5.9,111,103,8,0.4301575374,0.3007668632,0.8592731274,-0.07222339943,0.02584069371,-0.04932913219,1.49448569
Ray Allen,G,2002,Milwaukee,East,East,,,,,"365,421",3,8.9,0.169,4,116,109,7,-0.3341915197,-0.116121885,-0.07744602819,0.7067149167,-1.164351258,-0.1973165288,-1.182712303
Alonzo Mourning,C,2002,Miami,East,East,,,,,"279,423",7,7.4,0.145,1.9,104,97,7,-0.7751621295,-0.6163883829,-1.1127672,-1.162737042,1.216032645,-0.1973165288,-2.648338638
Steve Francis,G,2002,Houston,West,West,yes,yes,,,"456,972",1,4.4,0.091,2.9,104,109,-5,-1.657103349,-1.741988003,-0.6197571182,-1.162737042,-1.164351258,-1.973165288,-8.319102058
Tim Duncan,,2002,San Antonio,West,West,yes,yes,,,"762,289",4,17.8,0.257,8.1,114,96,18,2.282234099,1.718188607,1.943895307,0.3951395903,1.41439797,1.430544833,9.184400407
Kobe Bryant,G,2002,Lakers,West,West,yes,yes,,,"1,121,753",4,12.7,0.199,5,112,103,9,0.7829340253,0.5092112373,0.4155640537,0.0835642638,0.02584069371,0.09865826438,1.915772538
Kevin Garnett,,2002,Minnesota,West,West,yes,yes,,,"880,692",5,12.8,0.194,7,111,101,10,0.812332066,0.4049890502,1.401584217,-0.07222339943,0.4225713442,0.2466456609,3.215898939
Shaquille O'Neal,C,2002,Lakers,West,West,yes,,yes,,"1,247,438",9,13.2,0.262,5.5,116,99,17,0.9299242286,1.822410794,0.6620690946,0.7067149167,0.8193019947,1.282557437,6.222978466
Chris Webber,,2002,Sacramento,West,West,,yes,,,"553,401",4,8.6,0.2,4.3,109,98,11,-0.4223856416,0.5300556747,0.07045699637,-0.3837987259,1.01766732,0.3946330575,1.206628681
Elton Brand,,2002,Clippers,West,West,,,,yes,"160,678",1,13.6,0.216,6.2,120,103,17,1.047516391,0.8635666732,1.007176152,1.32986557,0.02584069371,1.282557437,5.556522917
Steve Nash,G,2002,Dallas,West,West,,,,,"278,664",1,9.9,0.167,3.1,118,112,6,-0.04021111308,-0.1578107599,-0.5211551019,1.018290243,-1.759447233,-0.3453039253,-1.80563789
Peja Stojaković,,2002,Sacramento,West,West,,,,,"323,664",1,9.9,0.179,3.2,115,104,11,-0.04021111308,0.09232248907,-0.4718540937,0.5509272535,-0.1725246315,0.3946330575,0.3532929618
Dirk Nowitzki,F,2002,Dallas,West,West,,,,,"398,184",1,13.4,0.222,4.8,120,104,16,0.9887203099,0.9886332977,0.3169620373,1.32986557,-0.1725246315,1.13457004,4.586226623
Wally Szczerbiak,,2002,Minnesota,West,West,,,,,,1,8.7,0.134,3.1,113,108,5,-0.392987601,-0.8456771944,-0.5211551019,0.239351927,-0.9659859325,-0.4932913219,-2.979745225
Gary Payton,G,2002,Seattle,West,West,,,,,"367,120",8,12.6,0.183,5.5,114,107,7,0.7535359847,0.1757002387,0.6620690946,0.3951395903,-0.7676206072,-0.1973165288,1.021507772
Karl Malone,,2002,Utah,West,West,,,yes,,"163,009",14,9.8,0.155,4.4,107,101,6,-0.06960915374,-0.4079440088,0.1197580046,-0.6953740523,0.4225713442,-0.3453039253,-0.9759017914
Ben Wallace,C,2003,Detroit,East,East,yes,yes,,,"1,123,090",1,10.6,0.176,5.1,108,90,18,0.1655751715,0.02978917684,0.4648650619,-0.5395863891,2.604589922,1.430544833,4.155777776
Jermaine O'Neal,,2003,Indiana,East,East,yes,yes,,,"940,958",2,10.5,0.177,3.3,107,97,10,0.1361771309,0.05063361425,-0.4225530855,-0.6953740523,1.216032645,0.2466456609,0.5315619133
Tracy McGrady,,2003,Orlando,East,East,yes,yes,,,"1,316,297",3,16.1,0.262,8.7,116,104,12,1.782467408,1.822410794,2.239701357,0.7067149167,-0.1725246315,0.5426204541,6.921390298
Allen Iverson,G,2003,Philadelphia,East,East,yes,yes,,,"1,155,897",4,9.2,0.127,4.2,103,102,1,-0.2459973977,-0.9915882563,0.02115598819,-1.318524705,0.2242060189,-1.085240908,-3.39598926
Vince Carter,,2003,Toronto,East,East,yes,,,,"1,300,895",4,4.2,0.136,1.7,109,108,1,-1.715899431,-0.8039883196,-1.211369216,-0.3837987259,-0.9659859325,-1.085240908,-6.166282533
Michael Jordan,,2003,Washington,East,East,,yes,,,"1,082,909",14,6.2,0.099,2.3,101,103,-2,-1.127938617,-1.575232504,-0.9155631674,-1.630100032,0.02584069371,-1.529203098,-6.752196724
Jamal Mashburn,,2003,New Orleans,East,East,,,,,"235,417",1,9,0.13,3.3,105,103,2,-0.304793479,-0.929054944,-0.4225530855,-1.006949379,0.02584069371,-0.9372535116,-3.574763705
Brad Miller,C,2003,Indiana,East,East,,,,,"238,755",1,9.6,0.202,3.3,118,100,18,-0.1284052351,0.5717445495,-0.4225530855,1.018290243,0.6209366694,1.430544833,3.090557975
Žydrūnas Ilgauskas,C,2003,Cleveland,East,East,,,,,"297,895",1,5,0.099,0.7,102,105,-3,-1.480715105,-1.575232504,-1.704379298,-1.474312368,-0.3708899568,-1.677190494,-8.282719727
Paul Pierce,F,2003,Boston,East,East,,,,,"313,652",2,10.1,0.157,4.9,104,100,4,0.01858496823,-0.366255134,0.3662630455,-1.162737042,0.6209366694,-0.6412787184,-1.164486211
Antoine Walker,,2003,Boston,East,East,,,,,"528,613",3,2.6,0.039,1.9,92,101,-9,-2.186268081,-2.825898748,-1.1127672,-3.032189001,0.4225713442,-2.565114874,-11.29966656
Jason Kidd,G,2003,New Jersey,East,East,,,,,"962,325",6,11.3,0.182,6.7,106,96,10,0.3713614561,0.1548558013,1.253681193,-0.8511617156,1.41439797,0.2466456609,2.589780366
Yao Ming,C,2003,Houston,West,West,yes,yes,,,"1,286,324",1,8.7,0.176,2.4,111,100,11,-0.392987601,0.02978917684,-0.8662621592,-0.07222339943,0.6209366694,0.3946330575,-0.2861142558
Steve Francis,G,2003,Houston,West,West,yes,yes,,,"966,669",2,11.1,0.16,5.8,109,103,6,0.3125653748,-0.3037218217,0.8099721192,-0.3837987259,0.02584069371,-0.3453039253,0.1155537148
Tim Duncan,,2003,San Antonio,West,West,yes,yes,,,"1,179,955",5,16.5,0.248,7.6,112,94,18,1.90005957,1.53058867,1.697390267,0.0835642638,1.811128621,1.430544833,8.453276225
Kobe Bryant,G,2003,Lakers,West,West,yes,yes,,,"1,474,386",5,14.9,0.21,7.1,111,103,8,1.42969092,0.7385000488,1.450885226,-0.07222339943,0.02584069371,-0.04932913219,3.523364356
Kevin Garnett,,2003,Minnesota,West,West,yes,yes,,,"1,086,780",6,15.6,0.225,9,113,98,15,1.635477204,1.05116661,2.387604381,0.239351927,1.01766732,0.9865826438,7.317850086
Shawn Marion,,2003,Phoenix,West,West,,,,,,1,13,0.186,6.4,111,98,13,0.8711281473,0.2382335509,1.105778168,-0.07222339943,1.01766732,0.6906078506,3.851191638
Peja Stojaković,,2003,Sacramento,West,West,,,,yes,"308,524",2,10.1,0.199,3.1,117,101,16,0.01858496823,0.5092112373,-0.5211551019,0.8625025799,0.4225713442,1.13457004,2.426285068
Steve Nash,G,2003,Dallas,West,West,,,,,"786,923",2,11.6,0.206,3.7,118,106,12,0.4595555781,0.6551222991,-0.2253490527,1.018290243,-0.569255282,0.5426204541,1.88098424
Dirk Nowitzki,F,2003,Dallas,West,West,,,,,"1,079,425",2,16.1,0.249,6.1,117,98,19,1.782467408,1.551433108,0.9578751437,0.8625025799,1.01766732,1.57853223,7.750477789
Stephon Marbury,G,2003,Phoenix,West,West,,,,,,2,9.6,0.142,3.6,108,106,2,-0.1284052351,-0.6789216951,-0.2746500609,-0.5395863891,-0.569255282,-0.9372535116,-3.128072174
Chris Webber,,2003,Sacramento,West,West,,,yes,,"906,836",5,6.9,0.127,3.8,99,96,3,-0.9221523328,-0.9915882563,-0.1760480446,-1.941675358,1.41439797,-0.789266115,-3.406332136
Gary Payton,G,2003,Seattle,West,West,,,,,"511,056",9,9.1,0.136,4.2,108,107,1,-0.2753954383,-0.8039883196,0.02115598819,-0.5395863891,-0.7676206072,-1.085240908,-3.450675674
Shaquille O'Neal,C,2003,Lakers,West,West,,,,,"1,049,081",10,13.2,0.25,5.3,117,102,15,0.9299242286,1.572277545,0.5634670782,0.8625025799,0.2242060189,0.9865826438,5.138960095
Ben Wallace,C,2004,Detroit,East,East,yes,yes,,,"1,982,251",2,10.2,0.16,5.5,98,87,11,0.04798300889,-0.3037218217,0.6620690946,-2.097463021,3.199685897,0.3946330575,1.903186215
Jermaine O'Neal,,2004,Indiana,East,East,yes,yes,,,"1,629,054",3,9,0.155,2.7,100,93,7,-0.304793479,-0.4079440088,-0.7183591346,-1.785887695,2.009493946,-0.1973165288,-1.4048069
Tracy McGrady,,2004,Orlando,East,East,yes,yes,,,"1,231,825",4,8.4,0.151,5.3,110,110,0,-0.4811817229,-0.4913217584,0.5634670782,-0.2280110627,-1.362716583,-1.233228305,-3.232992353
Allen Iverson,G,2004,Philadelphia,East,East,yes,yes,,,"1,731,648",5,2.8,0.066,2.3,96,102,-6,-2.127472,-2.263098938,-0.9155631674,-2.409038348,0.2242060189,-2.121152684,-9.612119118
Vince Carter,,2004,Toronto,East,East,yes,yes,,,"2,127,183",5,6,0.103,3.4,99,102,-3,-1.186734699,-1.491854754,-0.3732520773,-1.941675358,0.2242060189,-1.677190494,-6.446501364
Jamaal Magloire,,2004,New Orleans,East,East,,,,,"236,448",1,7.6,0.131,0.3,106,100,6,-0.7163660482,-0.9082105066,-1.901583331,-0.8511617156,0.6209366694,-0.3453039253,-4.101688857
Ron Artest,,2004,Indiana,East,East,,,,,"405,326",1,8,0.141,4.2,101,96,5,-0.5987738856,-0.6997661325,0.02115598819,-1.630100032,1.41439797,-0.4932913219,-1.986377413
Kenyon Martin,,2004,New Jersey,East,East,,,,,"659,773",1,6.7,0.142,2.2,99,93,6,-0.9809484141,-0.6789216951,-0.9648641756,-1.941675358,2.009493946,-0.3453039253,-2.902219622
Michael Redd,,2004,Milwaukee,East,East,,,,,,1,9.7,0.154,3.2,113,108,5,-0.0990071944,-0.4287884462,-0.4718540937,0.239351927,-0.9659859325,-0.4932913219,-2.219575062
Baron Davis,G,2004,New Orleans,East,East,,,,,"644,518",2,7.5,0.133,5.2,103,102,1,-0.7457640889,-0.8665216318,0.5141660701,-1.318524705,0.2242060189,-1.085240908,-3.277679245
Paul Pierce,F,2004,Boston,East,East,,,,,"332,353",3,7.1,0.109,3.2,101,103,-2,-0.8633562515,-1.36678813,-0.4718540937,-1.630100032,0.02584069371,-1.529203098,-5.835460911
Jason Kidd,G,2004,New Jersey,East,East,,,,,"1,126,838",7,7.2,0.141,4.1,102,97,5,-0.8339582108,-0.6997661325,-0.02814502,-1.474312368,1.216032645,-0.4932913219,-2.313440409
Yao Ming,C,2004,Houston,West,West,yes,yes,,,"1,484,531",2,11.4,0.202,2.6,110,97,13,0.4007594968,0.5717445495,-0.7676601428,-0.2280110627,1.216032645,0.6906078506,1.883473337
Steve Francis,G,2004,Houston,West,West,yes,yes,,,"976,841",3,7.1,0.107,3.6,99,99,0,-0.8633562515,-1.408477004,-0.2746500609,-1.941675358,0.8193019947,-1.233228305,-4.902084985
Tim Duncan,,2004,San Antonio,West,West,yes,yes,,,"1,681,435",6,13.1,0.249,5.9,107,89,18,0.9005261879,1.551433108,0.8592731274,-0.6953740523,2.802955247,1.430544833,6.849358451
Kobe Bryant,G,2004,Lakers,West,West,yes,yes,,,"1,759,717",6,10.7,0.21,4.7,112,102,10,0.1949732122,0.7385000488,0.2676610291,0.0835642638,0.2242060189,0.2466456609,1.755550234
Kevin Garnett,,2004,Minnesota,West,West,yes,yes,,,"1,780,918",7,18.3,0.272,9.8,112,92,20,2.429224302,2.030855168,2.782012447,0.0835642638,2.207859271,1.726519627,11.26003508
Andrei Kirilenko,,2004,Utah,West,West,,,,,,1,11.6,0.192,7.5,111,97,14,0.4595555781,0.3633001754,1.648089258,-0.07222339943,1.216032645,0.8385952472,4.453349505
Sam Cassell,,2004,Minnesota,West,West,,,,,,1,12.1,0.205,4.5,113,102,11,0.6065457814,0.6342778617,0.1690590127,0.239351927,0.2242060189,0.3946330575,2.268073659
Brad Miller,C,2004,Sacramento,West,West,,,,,"258,693",2,10,0.184,4.2,118,102,16,-0.01081307243,0.1965446761,0.02115598819,1.018290243,0.2242060189,1.13457004,2.583953894
Peja Stojaković,,2004,Sacramento,West,West,,,,,"456,369",3,13.5,0.198,4.7,120,106,14,1.018118351,0.4883667999,0.2676610291,1.32986557,-0.569255282,0.8385952472,3.373351714
Dirk Nowitzki,F,2004,Dallas,West,West,,,,,"572,362",3,11.5,0.19,4,116,104,12,0.4301575374,0.3216113006,-0.07744602819,0.7067149167,-0.1725246315,0.5426204541,1.751133549
Ray Allen,G,2004,Seattle,West,West,,,,,"303,337",4,6.9,0.153,3.3,112,110,2,-0.9221523328,-0.4496328836,-0.4225530855,0.0835642638,-1.362716583,-0.9372535116,-4.010744133
Shaquille O'Neal,C,2004,Lakers,West,West,,,,,"1,453,286",11,9.9,0.192,4.6,109,98,11,-0.04021111308,0.3633001754,0.2183600209,-0.3837987259,1.01766732,0.3946330575,1.569950735
LeBron James,F,2005,Cleveland,East,East,yes,yes,,,"1,661,204",1,14.3,0.203,8.8,114,103,11,1.253302676,0.5925889869,2.289002365,0.3951395903,0.02584069371,0.3946330575,4.950507369
Allen Iverson,G,2005,Philadelphia,East,East,yes,yes,,,"1,590,400",6,9,0.136,5,105,105,0,-0.304793479,-0.8039883196,0.4155640537,-1.006949379,-0.3708899568,-1.233228305,-3.304285385
Vince Carter,,2005,New Jersey,East,East,yes,yes,,,"1,803,529",6,9.4,0.159,5.2,109,104,5,-0.1872013164,-0.3245662591,0.5141660701,-0.3837987259,-0.1725246315,-0.4932913219,-1.047216185
Grant Hill,,2005,Orlando,East,East,yes,yes,,,"1,497,489",7,6.6,0.136,2.1,111,108,3,-1.010346455,-0.8039883196,-1.014165184,-0.07222339943,-0.9659859325,-0.789266115,-4.655975405
Shaquille O'Neal,C,2005,Miami,East,East,yes,yes,,,"2,488,089",12,11,0.211,4.7,111,100,11,0.2831673341,0.7593444862,0.2676610291,-0.07222339943,0.6209366694,0.3946330575,2.253519177
Gilbert Arenas,G,2005,Washington,East,East,,,,,"201,859",1,11.5,0.169,4.9,115,109,6,0.4301575374,-0.116121885,0.3662630455,0.5509272535,-1.164351258,-0.3453039253,-0.2784292317
Antawn Jamison,,2005,Washington,East,East,,,,,"416,683",1,5.4,0.1,0.5,108,109,-1,-1.363122943,-1.554388066,-1.802981315,-0.5395863891,-1.164351258,-1.381215701,-7.805645672
Dwyane Wade,G,2005,Miami,East,East,,,,,"1,195,888",1,11,0.177,4.8,109,103,6,0.2831673341,0.05063361425,0.3169620373,-0.3837987259,0.02584069371,-0.3453039253,-0.05249897179
Žydrūnas Ilgauskas,C,2005,Cleveland,East,East,,,,,"306,581",2,8.1,0.149,2,110,104,6,-0.5693758449,-0.5330106332,-1.063466192,-0.2280110627,-0.1725246315,-0.3453039253,-2.91169229
Ben Wallace,C,2005,Detroit,East,East,,,,,"798,454",3,8.5,0.153,3.9,105,94,11,-0.4517836823,-0.4496328836,-0.1267470364,-1.006949379,1.811128621,0.3946330575,0.1706486973
Paul Pierce,F,2005,Boston,East,East,,,,,"225,037",4,11.2,0.182,4.7,114,105,9,0.3419634155,0.1548558013,0.2676610291,0.3951395903,-0.3708899568,0.09865826438,0.8873881437
Jermaine O'Neal,,2005,Indiana,East,East,,,,,"1,432,438",4,3.8,0.118,0.5,102,101,1,-1.833491593,-1.179188193,-1.802981315,-1.474312368,0.4225713442,-1.085240908,-6.952643033
Yao Ming,C,2005,Houston,West,West,yes,yes,,,"2,558,578",3,10.7,0.21,2.2,113,99,14,0.1949732122,0.7385000488,-0.9648641756,0.239351927,0.8193019947,0.8385952472,1.865858254
Tracy McGrady,,2005,Houston,West,West,yes,yes,,,"1,993,687",5,12,0.18,7,109,101,8,0.5771477407,0.1131669265,1.401584217,-0.3837987259,0.4225713442,-0.04932913219,2.081342371
Tim Duncan,,2005,San Antonio,West,West,yes,yes,,,"1,812,522",7,11.2,0.245,4.7,112,93,19,0.3419634155,1.468055358,0.2676610291,0.0835642638,2.009493946,1.57853223,5.749270243
Kobe Bryant,G,2005,Lakers,West,West,yes,yes,,,"1,815,952",7,8.1,0.145,4.5,111,111,0,-0.5693758449,-0.6163883829,0.1690590127,-0.07222339943,-1.561081908,-1.233228305,-3.883238827
Kevin Garnett,,2005,Minnesota,West,West,yes,yes,,,"2,087,200",8,16.1,0.248,9.3,117,99,18,1.782467408,1.53058867,2.535507406,0.8625025799,0.8193019947,1.430544833,8.960912892
Manu Ginóbili,G,2005,San Antonio,West,West,,,,,"568,361",1,11,0.24,5,117,98,19,0.2831673341,1.363833171,0.4155640537,0.8625025799,1.01766732,1.57853223,5.521266689
Amar'e Stoudemire,,2005,Phoenix,West,West,,,,,"640,370",1,14.6,0.243,3.9,121,105,16,1.341496798,1.426366483,-0.1267470364,1.485653233,-0.3708899568,1.13457004,4.890449561
Rashard Lewis,,2005,Seattle,West,West,,,,,,1,8.4,0.15,3.3,117,110,7,-0.4811817229,-0.5121661958,-0.4225530855,0.8625025799,-1.362716583,-0.1973165288,-2.113431536
Shawn Marion,,2005,Phoenix,West,West,,,,,"264,203",2,12.5,0.191,5.5,116,101,15,0.724137944,0.342455738,0.6620690946,0.7067149167,0.4225713442,0.9865826438,3.844531681
Steve Nash,G,2005,Phoenix,West,West,,,,,"1,148,275",3,10.9,0.203,2.4,123,111,12,0.2537692935,0.5925889869,-0.8662621592,1.797228559,-1.561081908,0.5426204541,0.7588632264
Dirk Nowitzki,F,2005,Dallas,West,West,,,,,"846,912",4,15.6,0.248,5.9,118,100,18,1.635477204,1.53058867,0.8592731274,1.018290243,0.6209366694,1.430544833,7.095110748
Ray Allen,G,2005,Seattle,West,West,,,,,"920,130",5,10.7,0.168,4.4,117,112,5,0.1949732122,-0.1369663224,0.1197580046,0.8625025799,-1.759447233,-0.4932913219,-1.212471081
Dwyane Wade,G,2006,Miami,East,East,yes,yes,,,"1,499,664",2,14.4,0.239,7,115,103,12,1.282700716,1.342988734,1.401584217,0.5509272535,0.02584069371,0.5426204541,5.146662069
LeBron James,F,2006,Cleveland,East,East,yes,yes,,,"2,207,697",2,16.3,0.232,9.5,115,104,11,1.841263489,1.197077672,2.634109422,0.5509272535,-0.1725246315,0.3946330575,6.445486262
Allen Iverson,G,2006,Philadelphia,East,East,yes,yes,,,"2,062,206",7,10.6,0.165,4.3,111,110,1,0.1655751715,-0.1994996347,0.07045699637,-0.07222339943,-1.362716583,-1.085240908,-2.483648357
Shaquille O'Neal,C,2006,Miami,East,East,yes,yes,,,"2,192,542",13,6.2,0.164,2.1,108,102,6,-1.127938617,-0.2203440721,-1.014165184,-0.5395863891,0.2242060189,-0.3453039253,-3.023132169
Jermaine O'Neal,,2006,Indiana,East,East,yes,,yes,,"1,291,836",5,4.9,0.131,1.8,102,99,3,-1.510113146,-0.9082105066,-1.162068208,-1.474312368,0.8193019947,-0.789266115,-5.02466835
Vince Carter,,2006,New Jersey,East,East,,yes,,,"1,294,373",7,9.3,0.153,4.7,107,102,5,-0.216599357,-0.4496328836,0.2676610291,-0.6953740523,0.2242060189,-0.4932913219,-1.363030567
Chris Bosh,F/C,2006,Toronto,East,East,,,,,"352,033",1,9.8,0.17,3.1,118,111,7,-0.06960915374,-0.09527744763,-0.5211551019,1.018290243,-1.561081908,-0.1973165288,-1.426149897
Richard Hamilton,G,2006,Detroit,East,East,,,,,"474,895",1,7.6,0.13,1.5,109,108,1,-0.7163660482,-0.929054944,-1.309971233,-0.3837987259,-0.9659859325,-1.085240908,-5.390417792
Chauncey Billups,G,2006,Detroit,East,East,,,,,"717,006",1,15.5,0.254,4.9,127,107,20,1.606079164,1.655655295,0.3662630455,2.420379212,-0.7676206072,1.726519627,7.007275736
Gilbert Arenas,G,2006,Washington,East,East,,,,yes,"453,971",2,13.6,0.193,6.4,115,108,7,1.047516391,0.3841446128,1.105778168,0.5509272535,-0.9659859325,-0.1973165288,1.925063965
Rasheed Wallace,,2006,Detroit,East,East,,,,,"866,932",3,8.9,0.154,3.9,110,100,10,-0.3341915197,-0.4287884462,-0.1267470364,-0.2280110627,0.6209366694,0.2466456609,-0.2501557345
Ben Wallace,C,2006,Detroit,East,East,,,,,"1,234,687",4,10.1,0.168,5.7,112,95,17,0.01858496823,-0.1369663224,0.760671111,0.0835642638,1.612763296,1.282557437,3.621174753
Paul Pierce,F,2006,Boston,East,East,,,,,"441,218",5,11.5,0.178,4.9,112,106,6,0.4301575374,0.07147805166,0.3662630455,0.0835642638,-0.569255282,-0.3453039253,0.03690369106
Steve Nash,G,2006,Phoenix,West,West,yes,yes,,,"1,818,230",4,12.4,0.212,4,121,109,12,0.6947399033,0.7801889236,-0.07744602819,1.485653233,-1.164351258,0.5426204541,2.261405228
Yao Ming,C,2006,Houston,West,West,yes,yes,,,"2,342,738",4,8.6,0.211,2.2,113,100,13,-0.4223856416,0.7593444862,-0.9648641756,0.239351927,0.6209366694,0.6906078506,0.9229911161
Tracy McGrady,,2006,Houston,West,West,yes,yes,,,"1,818,932",6,4.1,0.112,3,102,102,0,-1.745297471,-1.304254817,-0.5704561101,-1.474312368,0.2242060189,-1.233228305,-6.103343053
Tim Duncan,,2006,San Antonio,West,West,yes,yes,,,"1,518,796",8,10.8,0.187,4.6,106,94,12,0.2243712528,0.2590779883,0.2183600209,-0.8511617156,1.811128621,0.5426204541,2.204396621
Kobe Bryant,G,2006,Lakers,West,West,yes,yes,,,"2,271,631",8,15.3,0.224,6.5,114,105,9,1.547283082,1.030322173,1.155079176,0.3951395903,-0.3708899568,0.09865826438,3.855592329
Tony Parker,G,2006,San Antonio,West,West,,,,,"646,739",1,9.6,0.169,3.1,110,102,8,-0.1284052351,-0.116121885,-0.5211551019,-0.2280110627,0.2242060189,-0.04932913219,-0.8188163979
Pau Gasol,F/C,2006,Memphis,West,West,,,,,"662,916",1,12,0.184,5.6,111,100,11,0.5771477407,0.1965446761,0.7113701028,-0.07222339943,0.6209366694,0.3946330575,2.428408847
Elton Brand,,2006,Clippers,West,West,,,,,"442,056",2,14.8,0.229,6.5,116,100,16,1.400292879,1.13454436,1.155079176,0.7067149167,0.6209366694,1.13457004,6.152138042
Shawn Marion,,2006,Phoenix,West,West,,,,,"285,505",3,14.6,0.214,5.9,118,100,18,1.341496798,0.8218777984,0.8592731274,1.018290243,0.6209366694,1.430544833,6.09241947
Dirk Nowitzki,F,2006,Dallas,West,West,,,,,"626,083",5,17.7,0.275,6,123,103,20,2.252836058,2.09338848,0.9085741356,1.797228559,0.02584069371,1.726519627,8.804387554
Ray Allen,G,2006,Seattle,West,West,,,,,"693,892",6,9.5,0.15,4.2,118,116,2,-0.1578032757,-0.5121661958,0.02115598819,1.018290243,-2.552908534,-0.9372535116,-3.120685286
Kevin Garnett,,2006,Minnesota,West,West,,,,,"1,479,386",9,14.9,0.242,7.4,117,98,19,1.42969092,1.405522046,1.59878825,0.8625025799,1.01766732,1.57853223,7.892703346
Chris Bosh,F/C,2007,Toronto,East,East,yes,yes,,,"1,091,263",2,9.6,0.174,3.1,112,104,8,-0.1284052351,-0.01189969799,-0.5211551019,0.0835642638,-0.1725246315,-0.04932913219,-0.7997495348
Gilbert Arenas,G,2007,Washington,East,East,yes,yes,,,"1,454,166",3,10.8,0.177,5.2,115,111,4,0.2243712528,0.05063361425,0.5141660701,0.5509272535,-1.561081908,-0.6412787184,-0.862262436
Dwyane Wade,G,2007,Miami,East,East,yes,yes,,,"2,029,591",3,8.8,0.219,5.1,112,103,9,-0.3635895603,0.9260999855,0.4648650619,0.0835642638,0.02584069371,0.09865826438,1.235438709
LeBron James,F,2007,Cleveland,East,East,yes,yes,,,"2,516,049",3,13.7,0.206,7.6,112,100,12,1.076914432,0.6551222991,1.697390267,0.0835642638,0.6209366694,0.5426204541,4.676548385
Shaquille O'Neal,C,2007,Miami,East,East,yes,yes,,,"1,622,446",14,2.8,0.119,0.8,105,104,1,-2.127472,-1.158343756,-1.65507829,-1.006949379,-0.1725246315,-1.085240908,-7.205608964
Caron Butler,,2007,Washington,East,East,,,,,"404,489",1,5.3,0.103,2.5,108,109,-1,-1.392520983,-1.491854754,-0.816961151,-0.5395863891,-1.164351258,-1.381215701,-6.786490236
Dwight Howard,C,2007,Orlando,East,East,,,,,"1,464,613",1,9.7,0.154,4.3,107,99,8,-0.0990071944,-0.4287884462,0.07045699637,-0.6953740523,0.8193019947,-0.04932913219,-0.3827398341
Joe Johnson,G,2007,Atlanta,East,East,,,,yes,,1,5.1,0.105,2.1,109,111,-2,-1.451317065,-1.450165879,-1.014165184,-0.3837987259,-1.561081908,-1.529203098,-7.38973186
Richard Hamilton,G,2007,Detroit,East,East,,,,,"306,547",2,8.1,0.141,2.2,112,108,4,-0.5693758449,-0.6997661325,-0.9648641756,0.0835642638,-0.9659859325,-0.6412787184,-3.75770654
Chauncey Billups,G,2007,Detroit,East,East,,,,,"499,670",2,11.4,0.216,4.1,123,106,17,0.4007594968,0.8635666732,-0.02814502,1.797228559,-0.569255282,1.282557437,3.746711864
Jermaine O'Neal,,2007,Indiana,East,East,,,,,"934,749",6,4.7,0.091,1.5,99,101,-2,-1.568909227,-1.741988003,-1.309971233,-1.941675358,0.4225713442,-1.529203098,-7.669175575
Jason Kidd,G,2007,New Jersey,East,East,,,yes,,"838,486",8,9.3,0.152,5.2,111,103,8,-0.216599357,-0.470477321,0.5141660701,-0.07222339943,0.02584069371,-0.04932913219,-0.2686224459
Vince Carter,,2007,New Jersey,East,East,,,,,"1,451,156",8,10.5,0.161,4.8,111,107,4,0.1361771309,-0.2828773843,0.3169620373,-0.07222339943,-0.7676206072,-0.6412787184,-1.310860941
Tracy McGrady,,2007,Houston,West,West,yes,yes,,,"1,942,746",7,8.6,0.163,5.2,106,100,6,-0.4223856416,-0.2411885095,0.5141660701,-0.8511617156,0.6209366694,-0.3453039253,-0.7249370525
Tim Duncan,,2007,San Antonio,West,West,yes,yes,,,"1,436,584",9,13,0.23,6.3,111,94,17,0.8711281473,1.155388797,1.05647716,-0.07222339943,1.811128621,1.282557437,6.104456763
Kobe Bryant,G,2007,Lakers,West,West,yes,yes,,,"2,138,777",9,13,0.199,5.3,115,109,6,0.8711281473,0.5092112373,0.5634670782,0.5509272535,-1.164351258,-0.3453039253,0.9850785333
Kevin Garnett,,2007,Minnesota,West,West,yes,yes,,,"1,616,575",10,10.7,0.171,5.2,110,101,9,0.1949732122,-0.07443301022,0.5141660701,-0.2280110627,0.4225713442,0.09865826438,0.9279248179
Yao Ming,C,2007,Houston,West,West,yes,,yes,,"2,451,718",5,7.4,0.22,1.8,111,98,13,-0.7751621295,0.9469444229,-1.162068208,-0.07222339943,1.01766732,0.6906078506,0.6457658562
Dirk Nowitzki,F,2007,Dallas,West,West,,yes,,,"1,276,304",6,16.3,0.278,6.2,123,102,21,1.841263489,2.155921793,1.007176152,1.797228559,0.2242060189,1.874507023,8.900303035
Mehmet Okur,,2007,Utah,West,West,,,,yes,"339,247",1,8.8,0.158,2.7,117,108,9,-0.3635895603,-0.3454106965,-0.7183591346,0.8625025799,-0.9659859325,0.09865826438,-1.43218448
Carlos Boozer,,2007,Utah,West,West,,,yes,,"359,882",1,9.9,0.185,4.3,114,104,10,-0.04021111308,0.2173891135,0.07045699637,0.3951395903,-0.1725246315,0.2466456609,0.7168956165
Josh Howard,,2007,Dallas,West,West,,,,yes,"412,102",1,8.8,0.173,3,112,102,10,-0.3635895603,-0.0327441354,-0.5704561101,0.0835642638,0.2242060189,0.2466456609,-0.4123738621
Carmelo Anthony,F,2007,Denver,West,West,,,,yes,"1,309,945",1,7.3,0.14,2.5,109,108,1,-0.8045601702,-0.7206105699,-0.816961151,-0.3837987259,-0.9659859325,-1.085240908,-4.777157458
Tony Parker,G,2007,San Antonio,West,West,,,,,"501,429",2,9.6,0.185,3,112,102,10,-0.1284052351,0.2173891135,-0.5704561101,0.0835642638,0.2242060189,0.2466456609,0.0729437121
Amar'e Stoudemire,,2007,Phoenix,West,West,,,,,"1,209,333",2,11.2,0.201,2.4,116,103,13,0.3419634155,0.5509001121,-0.8662621592,0.7067149167,0.02584069371,0.6906078506,1.449764829
Shawn Marion,,2007,Phoenix,West,West,,,,,"551,173",4,12,0.191,5.7,118,100,18,0.5771477407,0.342455738,0.760671111,1.018290243,0.6209366694,1.430544833,4.750046336
Steve Nash,G,2007,Phoenix,West,West,,,yes,,"1,504,826",5,12.6,0.225,3.9,124,110,14,0.7535359847,1.05116661,-0.1267470364,1.953016223,-1.362716583,0.8385952472,3.106850445
Ray Allen,G,2007,Seattle,West,West,,,,yes,"444,443",7,6.3,0.136,3,112,112,0,-1.098540577,-0.8039883196,-0.5704561101,0.0835642638,-1.759447233,-1.233228305,-5.382096281
Allen Iverson,G,2007,Denver,West,West,,,yes,,"1,813,638",8,6.2,0.108,1.9,106,108,-2,-1.127938617,-1.387632567,-1.1127672,-0.8511617156,-0.9659859325,-1.529203098,-6.97468913
Dwight Howard,C,2008,Orlando,East,East,yes,yes,,,"2,066,991",2,12.9,0.2,3.3,113,99,14,0.8417301066,0.5300556747,-0.4225530855,0.239351927,0.8193019947,0.8385952472,2.846481865
Dwyane Wade,G,2008,Miami,East,East,yes,yes,,,"1,608,260",4,3.3,0.082,2.5,103,110,-7,-1.980481796,-1.92958794,-0.816961151,-1.318524705,-1.362716583,-2.269140081,-9.677412256
LeBron James,F,2008,Cleveland,East,East,yes,yes,,,"2,108,831",4,15.2,0.242,10.1,116,104,12,1.517885042,1.405522046,2.929915471,0.7067149167,-0.1725246315,0.5426204541,6.930133298
Jason Kidd,G,2008,New Jersey,East,East,yes,yes,,,"1,246,386",9,5.9,0.097,3.5,104,105,-1,-1.216132739,-1.616921379,-0.3239510691,-1.162737042,-0.3708899568,-1.381215701,-6.071847887
Kevin Garnett,,2008,Boston,East,East,yes,,yes,,"2,399,148",11,12.9,0.265,5.5,118,94,24,0.8417301066,1.884944106,0.6620690946,1.018290243,1.811128621,2.318469213,8.536631384
Chris Bosh,F/C,2008,Toronto,East,East,,yes,,,"838,498",3,10.1,0.2,3.5,117,105,12,0.01858496823,0.5300556747,-0.3239510691,0.8625025799,-0.3708899568,0.5426204541,1.258922651
Joe Johnson,G,2008,Atlanta,East,East,,,,,"253,308",2,7,0.1,2.7,109,112,-3,-0.8927542921,-1.554388066,-0.7183591346,-0.3837987259,-1.759447233,-1.677190494,-6.985937947
Caron Butler,,2008,Washington,East,East,,,yes,,"340,619",2,7.2,0.15,3.9,113,107,6,-0.8339582108,-0.5121661958,-0.1267470364,0.239351927,-0.7676206072,-0.3453039253,-2.346444049
Antawn Jamison,,2008,Washington,East,East,,,,,,2,9.2,0.144,1.8,112,107,5,-0.2459973977,-0.6372328203,-1.162068208,0.0835642638,-0.7676206072,-0.4932913219,-3.222646092
Richard Hamilton,G,2008,Detroit,East,East,,,,,"308,357",3,7.7,0.152,2.8,113,106,7,-0.6869680075,-0.470477321,-0.6690581264,0.239351927,-0.569255282,-0.1973165288,-2.353723339
Chauncey Billups,G,2008,Detroit,East,East,,,,,"625,772",3,13.5,0.257,5.2,127,105,22,1.018118351,1.718188607,0.5141660701,2.420379212,-0.3708899568,2.02249442,7.322456703
Rasheed Wallace,,2008,Detroit,East,East,,,,yes,"303,978",4,7.6,0.155,3.6,108,98,10,-0.7163660482,-0.4079440088,-0.2746500609,-0.5395863891,1.01766732,0.2466456609,-0.6742335262
Paul Pierce,F,2008,Boston,East,East,,,,,"574,159",6,12.4,0.207,4.9,115,100,15,0.6947399033,0.6759667366,0.3662630455,0.5509272535,0.6209366694,0.9865826438,3.895416252
Ray Allen,G,2008,Boston,East,East,,,,yes,"1,061,740",8,9.7,0.177,3.4,116,103,13,-0.0990071944,0.05063361425,-0.3732520773,0.7067149167,0.02584069371,0.6906078506,1.001537804
Carmelo Anthony,F,2008,Denver,West,West,yes,yes,,,"1,723,701",2,8.2,0.14,2.6,109,107,2,-0.5399778043,-0.7206105699,-0.7676601428,-0.3837987259,-0.7676206072,-0.9372535116,-4.116921362
Yao Ming,C,2008,Houston,West,West,yes,yes,,,"1,709,180",6,8.3,0.196,2.6,112,99,13,-0.5105797636,0.446677925,-0.7676601428,0.0835642638,0.8193019947,0.6906078506,0.7619121277
Allen Iverson,G,2008,Denver,West,West,yes,yes,,,"1,203,152",9,11.6,0.163,3.1,115,109,6,0.4595555781,-0.2411885095,-0.5211551019,0.5509272535,-1.164351258,-0.3453039253,-1.261515963
Tim Duncan,,2008,San Antonio,West,West,yes,yes,,,"1,712,800",10,11.1,0.201,4.5,110,97,13,0.3125653748,0.5509001121,0.1690590127,-0.2280110627,1.216032645,0.6906078506,2.711153933
Kobe Bryant,G,2008,Lakers,West,West,yes,yes,,,"2,004,940",10,13.8,0.208,6,115,105,10,1.106312473,0.696811174,0.9085741356,0.5509272535,-0.3708899568,0.2466456609,3.13838074
Chris Paul,G,2008,New Orleans,West,West,,,,,"563,525",1,17.8,0.284,8.5,125,103,22,2.282234099,2.280988417,2.14109934,2.108803886,0.02584069371,2.02249442,10.86146086
Brandon Roy,G,2008,Portland,West,West,,,,,,1,8,0.138,3.9,113,110,3,-0.5987738856,-0.7622994448,-0.1267470364,0.239351927,-1.362716583,-0.789266115,-3.400451138
David West,F,2008,New Orleans,West,West,,,,,,1,8.4,0.14,2.3,109,104,5,-0.4811817229,-0.7206105699,-0.9155631674,-0.3837987259,-0.1725246315,-0.4932913219,-3.16697014
Carlos Boozer,,2008,Utah,West,West,,,,,"553,624",2,10.2,0.173,3.7,112,103,9,0.04798300889,-0.0327441354,-0.2253490527,0.0835642638,0.02584069371,0.09865826438,-0.00204695737
Amar'e Stoudemire,,2008,Phoenix,West,West,,,,,"998,969",3,14.6,0.262,4,124,104,20,1.341496798,1.822410794,-0.07744602819,1.953016223,-0.1725246315,1.726519627,6.593472781
Steve Nash,G,2008,Phoenix,West,West,,,,,"1,174,125",6,10.5,0.181,2.6,121,112,9,0.1361771309,0.1340113639,-0.7676601428,1.485653233,-1.759447233,0.09865826438,-0.6726073843
Dirk Nowitzki,F,2008,Dallas,West,West,,,,,"1,259,025",7,12.9,0.223,5,118,104,14,0.8417301066,1.009477735,0.4155640537,1.018290243,-0.1725246315,0.8385952472,3.951132754
Dwight Howard,C,2009,Orlando,East,East,yes,yes,,,"3,150,181",3,13.8,0.234,4.6,113,95,18,1.106312473,1.238766547,0.2183600209,0.239351927,1.612763296,1.430544833,5.846099096
Dwyane Wade,G,2009,Miami,East,East,yes,yes,,,"2,741,413",5,14.7,0.232,9.7,115,105,10,1.370894838,1.197077672,2.732711438,0.5509272535,-0.3708899568,0.2466456609,5.727366906
LeBron James,F,2009,Cleveland,East,East,yes,yes,,,"2,940,823",5,20.3,0.318,11.6,122,99,23,3.017185115,2.989699289,3.669430594,1.641440896,0.8193019947,2.170481816,14.30753971
Allen Iverson,G,2009,Detroit,East,East,yes,yes,,,"1,804,649",10,2.9,0.066,0.7,103,109,-6,-2.098073959,-2.263098938,-1.704379298,-1.318524705,-1.164351258,-2.121152684,-10.66958084
Kevin Garnett,,2009,Boston,East,East,yes,yes,,,"2,066,833",12,7.1,0.193,2.7,112,98,14,-0.8633562515,0.3841446128,-0.7183591346,0.0835642638,1.01766732,0.8385952472,0.7422560576
Danny Granger,,2009,Indiana,East,East,,,,,"365,810",1,8,0.158,3,114,109,5,-0.5987738856,-0.3454106965,-0.5704561101,0.3951395903,-1.164351258,-0.4932913219,-2.777143682
Devin Harris,,2009,New Jersey,East,East,,,,,"1,182,406",1,7.5,0.145,2.8,113,111,2,-0.7457640889,-0.6163883829,-0.6690581264,0.239351927,-1.561081908,-0.9372535116,-4.290194091
Jameer Nelson,G,2009,Orlando,East,East,,,yes,,,1,6,0.22,2.4,121,103,18,-1.186734699,0.9469444229,-0.8662621592,1.485653233,0.02584069371,1.430544833,1.835986325
Mo Williams,,2009,Cleveland,East,East,,,,yes,,1,9.8,0.165,3.1,115,106,9,-0.06960915374,-0.1994996347,-0.5211551019,0.5509272535,-0.569255282,0.09865826438,-0.7099336544
Rashard Lewis,,2009,Orlando,East,East,,,,,,2,9.5,0.16,4.5,113,103,10,-0.1578032757,-0.3037218217,0.1690590127,0.239351927,0.02584069371,0.2466456609,0.219372197
Joe Johnson,G,2009,Atlanta,East,East,,,,,"420,210",3,7.6,0.116,3,110,110,0,-0.7163660482,-1.220877068,-0.5704561101,-0.2280110627,-1.362716583,-1.233228305,-5.331655176
Chris Bosh,F/C,2009,Toronto,East,East,,,yes,,"1,101,052",4,9.7,0.159,3.3,114,108,6,-0.0990071944,-0.3245662591,-0.4225530855,0.3951395903,-0.9659859325,-0.3453039253,-1.762276807
Paul Pierce,F,2009,Boston,East,East,,,,,"1,238,763",7,10.3,0.164,3.4,112,104,8,0.07738104955,-0.2203440721,-0.3732520773,0.0835642638,-0.1725246315,-0.04932913219,-0.6545045998
Ray Allen,G,2009,Boston,East,East,,,,yes,"851,205",9,11.1,0.186,4.3,122,106,16,0.3125653748,0.2382335509,0.07045699637,1.641440896,-0.569255282,1.13457004,2.828011576
Chris Paul,G,2009,New Orleans,West,West,yes,yes,,,"2,134,798",2,18.3,0.292,10,124,103,21,2.429224302,2.447743916,2.880614463,1.953016223,0.02584069371,1.874507023,11.61094662
Amar'e Stoudemire,,2009,Phoenix,West,West,yes,yes,,,"1,460,429",4,6.1,0.149,1.5,117,111,6,-1.157336658,-0.5330106332,-1.309971233,0.8625025799,-1.561081908,-0.3453039253,-4.044201778
Yao Ming,C,2009,Houston,West,West,yes,yes,,,"2,532,958",7,10.6,0.196,3.3,114,101,13,0.1655751715,0.446677925,-0.4225530855,0.3951395903,0.4225713442,0.6906078506,1.698018796
Tim Duncan,,2009,San Antonio,West,West,yes,yes,,,"2,578,168",11,10.1,0.191,4.2,111,100,11,0.01858496823,0.342455738,0.02115598819,-0.07222339943,0.6209366694,0.3946330575,1.325543022
Kobe Bryant,G,2009,Lakers,West,West,yes,yes,,,"2,805,397",11,12.7,0.206,4.9,115,106,9,0.7829340253,0.6551222991,0.3662630455,0.5509272535,-0.569255282,0.09865826438,1.884649606
Brandon Roy,G,2009,Portland,West,West,,,,,"468,688",2,13.5,0.223,5.7,123,109,14,1.018118351,1.009477735,0.760671111,1.797228559,-1.164351258,0.8385952472,4.259739745
Pau Gasol,F/C,2009,Lakers,West,West,,,,,"948,301",2,13.9,0.223,5.3,126,105,21,1.135710513,1.009477735,0.5634670782,2.264591549,-0.3708899568,1.874507023,6.476863942
David West,F,2009,New Orleans,West,West,,,,,,2,7.8,0.125,1.2,109,107,2,-0.6575699669,-1.033277131,-1.457874257,-0.3837987259,-0.7676206072,-0.9372535116,-5.2373942
Tony Parker,G,2009,San Antonio,West,West,,,,,"1,084,361",3,8.6,0.168,3.2,112,107,5,-0.4223856416,-0.1369663224,-0.4718540937,0.0835642638,-0.7676206072,-0.4932913219,-2.208553723
Chauncey Billups,G,2009,Denver,West,West,,,,,,4,10.1,0.174,3.2,121,110,11,0.01858496823,-0.01189969799,-0.4718540937,1.485653233,-1.362716583,0.3946330575,0.05240088396
Dirk Nowitzki,F,2009,Dallas,West,West,,,,,"1,107,926",8,10.9,0.171,2.4,114,108,6,0.2537692935,-0.07443301022,-0.8662621592,0.3951395903,-0.9659859325,-0.3453039253,-1.603076143
Shaquille O'Neal,C,2009,Phoenix,West,West,,,,,"1,850,018",15,7.8,0.166,2.3,117,109,8,-0.6575699669,-0.1786551973,-0.9155631674,0.8625025799,-1.164351258,-0.04932913219,-2.102966141
Dwight Howard,C,2010,Orlando,East,East,yes,yes,,,"2,360,096",4,13.2,0.223,5.4,113,95,18,0.9299242286,1.009477735,0.6127680864,0.239351927,1.612763296,1.430544833,5.834830106
Dwyane Wade,G,2010,Miami,East,East,yes,yes,,,"2,327,550",6,13,0.224,8,113,103,10,0.8711281473,1.030322173,1.894594299,0.239351927,0.02584069371,0.2466456609,4.307882901
LeBron James,F,2010,Cleveland,East,East,yes,yes,,,"2,549,693",6,18.5,0.299,10.9,121,102,19,2.488020383,2.593654978,3.324323537,1.485653233,0.2242060189,1.57853223,11.69439038
Kevin Garnett,,2010,Boston,East,East,yes,yes,,,"1,978,116",13,7.3,0.171,2.4,112,101,11,-0.8045601702,-0.07443301022,-0.8662621592,0.0835642638,0.4225713442,0.3946330575,-0.8444866741
Allen Iverson,G,2010,Detroit,East,East,yes,,yes,,"1,269,568",11,0.7,0.037,-0.5,103,114,-11,-2.744830854,-2.867587623,-2.295991397,-1.318524705,-2.156177884,-2.861089667,-14.24420213
Joe Johnson,G,2010,Atlanta,East,East,,yes,,,"496,255",4,8.4,0.14,3,112,109,3,-0.4811817229,-0.7206105699,-0.5704561101,0.0835642638,-1.164351258,-0.789266115,-3.642301512
Al Horford,F/C,2010,Atlanta,East,East,,,,,"270,532",1,10.9,0.183,3.8,121,105,16,0.2537692935,0.1757002387,-0.1760480446,1.485653233,-0.3708899568,1.13457004,2.502754804
Rajon Rondo,G,2010,Boston,East,East,,,,,"425,590",1,9.6,0.156,4.1,111,103,8,-0.1284052351,-0.3870995714,-0.02814502,-0.07222339943,0.02584069371,-0.04932913219,-0.6393616643
Derrick Rose,G,2010,Chicago,East,East,,,,,"571,911",1,6,0.1,1.8,106,109,-3,-1.186734699,-1.554388066,-1.162068208,-0.8511617156,-1.164351258,-1.677190494,-7.595894441
David Lee,F,2010,New York,East,East,,,,,,1,10.3,0.163,3.7,116,108,8,0.07738104955,-0.2411885095,-0.2253490527,0.7067149167,-0.9659859325,-0.04932913219,-0.6977566607
Gerald Wallace,,2010,Charlotte,East,East,,,,,,1,11.5,0.177,4.3,113,100,13,0.4301575374,0.05063361425,0.07045699637,0.239351927,0.6209366694,0.6906078506,2.102144595
Chris Bosh,F/C,2010,Toronto,East,East,,,,,"1,164,007",5,9.6,0.182,2.7,117,111,6,-0.1284052351,0.1548558013,-0.7183591346,0.8625025799,-1.561081908,-0.3453039253,-1.735791822
Paul Pierce,F,2010,Boston,East,East,,,,,"525,677",8,8.3,0.165,2.9,114,105,9,-0.5105797636,-0.1994996347,-0.6197571182,0.3951395903,-0.3708899568,0.09865826438,-1.206928619
Carmelo Anthony,F,2010,Denver,West,West,yes,yes,,,"2,137,560",3,7.9,0.145,2.3,110,109,1,-0.6281719262,-0.6163883829,-0.9155631674,-0.2280110627,-1.164351258,-1.085240908,-4.637726705
Amar'e Stoudemire,,2010,Phoenix,West,West,yes,yes,,,"1,824,093",5,10.7,0.181,1.6,117,109,8,0.1949732122,0.1340113639,-1.260670225,0.8625025799,-1.164351258,-0.04932913219,-1.282863459
Steve Nash,G,2010,Phoenix,West,West,yes,yes,,,"1,222,235",7,9.9,0.178,2.6,121,114,7,-0.04021111308,0.07147805166,-0.7676601428,1.485653233,-2.156177884,-0.1973165288,-1.604234384
Tim Duncan,,2010,San Antonio,West,West,yes,yes,,,"1,156,696",12,10.9,0.215,4.7,116,101,15,0.2537692935,0.8427222358,0.2676610291,0.7067149167,0.4225713442,0.9865826438,3.480021463
Kobe Bryant,G,2010,Lakers,West,West,yes,,yes,,"2,456,224",12,9.4,0.16,4,109,104,5,-0.1872013164,-0.3037218217,-0.07744602819,-0.3837987259,-0.1725246315,-0.4932913219,-1.617983846
Dirk Nowitzki,F,2010,Dallas,West,West,,yes,,,"1,093,005",9,12.3,0.194,3.5,116,105,11,0.6653418627,0.4049890502,-0.3239510691,0.7067149167,-0.3708899568,0.3946330575,1.476837861
Kevin Durant,F,2010,Oklahoma City,West,West,,,,,"870,567",1,16.1,0.238,5.8,118,104,14,1.782467408,1.322144296,0.8099721192,1.018290243,-0.1725246315,0.8385952472,5.598944682
Chris Kaman,,2010,Clippers,West,West,,,,,,1,2.4,0.044,-0.8,99,109,-10,-2.245064162,-2.721676561,-2.443894421,-1.941675358,-1.164351258,-2.71310227,-13.22976403
Deron Williams,G,2010,Utah,West,West,,,,,,1,10.3,0.177,3.7,116,107,9,0.07738104955,0.05063361425,-0.2253490527,0.7067149167,-0.7676206072,0.09865826438,-0.05958181511
Zach Randolph,F,2010,Memphis,West,West,,,,,,1,9.7,0.153,2.2,115,109,6,-0.0990071944,-0.4496328836,-0.9648641756,0.5509272535,-1.164351258,-0.3453039253,-2.472232183
Brandon Roy,G,2010,Portland,West,West,,,yes,,"422,290",3,9.1,0.18,3.7,117,109,8,-0.2753954383,0.1131669265,-0.2253490527,0.8625025799,-1.164351258,-0.04932913219,-0.7387553746
Pau Gasol,F/C,2010,Lakers,West,West,,,,,"1,051,785",3,11,0.22,4.5,120,102,18,0.2831673341,0.9469444229,0.1690590127,1.32986557,0.2242060189,1.430544833,4.383787192
Chris Paul,G,2010,New Orleans,West,West,,,yes,,"1,055,789",3,7.3,0.204,3,122,109,13,-0.8045601702,0.6134334243,-0.5704561101,1.641440896,-1.164351258,0.6906078506,0.4061146331
Chauncey Billups,G,2010,Denver,West,West,,,,yes,"452,983",5,9.5,0.182,3.2,120,110,10,-0.1578032757,0.1548558013,-0.4718540937,1.32986557,-1.362716583,0.2466456609,-0.2610069205
Jason Kidd,G,2010,Dallas,West,West,,,,yes,"523,708",10,8.9,0.148,4.6,115,105,10,-0.3341915197,-0.5538550706,0.2183600209,0.5509272535,-0.3708899568,0.2466456609,-0.2430036117
Derrick Rose,G,2011,Chicago,East,East,yes,yes,,,,2,,,,,,,,,,,,,
Dwight Howard,C,2011,Orlando,East,East,yes,yes,,,,5,,,,,,,,,,,,,
Amar'e Stoudemire,,2011,New York,East,East,yes,yes,,,,6,,,,,,,,,,,,,
Dwyane Wade,G,2011,Miami,East,East,yes,yes,,,,7,,,,,,,,,,,,,
LeBron James,F,2011,Miami,East,East,yes,yes,,,,7,,,,,,,,,,,,,
Al Horford,F/C,2011,Atlanta,East,East,,,,,,2,,,,,,,,,,,,,
Rajon Rondo,G,2011,Boston,East,East,,,,,,2,,,,,,,,,,,,,
Joe Johnson,G,2011,Atlanta,East,East,,,,,,5,,,,,,,,,,,,,
Chris Bosh,F/C,2011,Miami,East,East,,,,,,6,,,,,,,,,,,,,
Paul Pierce,F,2011,Boston,East,East,,,,,,9,,,,,,,,,,,,,
Ray Allen,G,2011,Boston,East,East,,,,,,10,,,,,,,,,,,,,
Kevin Garnett,,2011,Boston,East,East,,,,,,14,,,,,,,,,,,,,
Kevin Durant,F,2011,Oklahoma City,West,West,yes,yes,,,,2,,,,,,,,,,,,,
Carmelo Anthony,F,2011,Denver,West,West,yes,yes,,,,4,,,,,,,,,,,,,
Chris Paul,G,2011,New Orleans,West,West,yes,yes,,,,4,,,,,,,,,,,,,
Kobe Bryant,G,2011,Lakers,West,West,yes,yes,,,,13,,,,,,,,,,,,,
Yao Ming,C,2011,Houston,West,West,yes,,yes,,,8,,,,,,,,,,,,,
Tim Duncan,,2011,San Antonio,West,West,,yes,,,,13,,,,,,,,,,,,,
Blake Griffin,F,2011,Clippers,West,West,,,,,,1,,,,,,,,,,,,,
Kevin Love,,2011,Minnesota,West,West,,,,yes,,1,,,,,,,,,,,,,
Russell Westbrook,G,2011,Oklahoma City,West,West,,,,,,1,,,,,,,,,,,,,
Deron Williams,G,2011,Utah Jazz,West,West,,,,,,2,,,,,,,,,,,,,
Manu Ginóbili,G,2011,San Antonio,West,West,,,,,,2,,,,,,,,,,,,,
Pau Gasol,F/C,2011,Lakers,West,West,,,,,,4,,,,,,,,,,,,,
Dirk Nowitzki,F,2011,Dallas,West,West,,,,,,10,,,,,,,,,,,,,
Derrick Rose,G,2012,Chicago,East,East,yes,yes,,,,3,,,,,,,,,,,,,
Carmelo Anthony,F,2012,New York,East,East,yes,yes,,,,5,,,,,,,,,,,,,
Dwight Howard,C,2012,Orlando,East,East,yes,yes,,,,6,,,,,,,,,,,,,
Dwyane Wade,G,2012,Miami,East,East,yes,yes,,,,8,,,,,,,,,,,,,
LeBron James,F,2012,Miami,East,East,yes,yes,,,,8,,,,,,,,,,,,,
Andre Iguodala,G/F,2012,Philadelphia,East,East,,,,,,1,,,,,,,,,,,,,
Luol Deng,F,2012,Chicago,East,East,,,,,,1,,,,,,,,,,,,,
Roy Hibbert,C,2012,Indiana,East,East,,,,,,1,,,,,,,,,,,,,
Deron Williams,G,2012,New Jersey,East,East,,,,,,3,,,,,,,,,,,,,
Rajon Rondo,G,2012,Boston,East,East,,,,yes,,3,,,,,,,,,,,,,
Joe Johnson,G,2012,Atlanta,East,East,,,yes,,,6,,,,,,,,,,,,,
Chris Bosh,F/C,2012,Miami,East,East,,,,,,7,,,,,,,,,,,,,
Paul Pierce,F,2012,Boston,East,East,,,,,,10,,,,,,,,,,,,,
Andrew Bynum,C,2012,Lakers,West,West,yes,yes,,,,1,,,,,,,,,,,,,
Blake Griffin,F,2012,Clippers,West,West,yes,yes,,,,2,,,,,,,,,,,,,
Kevin Durant,F,2012,Oklahoma City,West,West,yes,yes,,,,3,,,,,,,,,,,,,
Chris Paul,G,2012,Clippers,West,West,yes,yes,,,,5,,,,,,,,,,,,,
Kobe Bryant,G,2012,Lakers,West,West,yes,yes,,,,14,,,,,,,,,,,,,
LaMarcus Aldridge,F,2012,Portland,West,West,,,,,,1,,,,,,,,,,,,,
Marc Gasol,C,2012,Memphis,West,West,,,,,,1,,,,,,,,,,,,,
Kevin Love,F,2012,Minnesota,West,West,,,,,,2,,,,,,,,,,,,,
Russell Westbrook,G,2012,Oklahoma City,West,West,,,,,,2,,,,,,,,,,,,,
Tony Parker,G,2012,San Antonio,West,West,,,,,,4,,,,,,,,,,,,,
Steve Nash,G,2012,Phoenix,West,West,,,,,,8,,,,,,,,,,,,,
Dirk Nowitzki,F,2012,Dallas,West,West,,,,,,11,,,,,,,,,,,,,
Carmelo Anthony,F,2013,New York,East,East,yes,yes,,,,6,,,,,,,,,,,,,
Dwyane Wade,G,2013,Miami,East,East,yes,yes,,,,9,,,,,,,,,,,,,
LeBron James,F,2013,Miami,East,East,yes,yes,,,,9,,,,,,,,,,,,,
Kevin Garnett,F/C,2013,Boston,East,East,yes,yes,,,,15,,,,,,,,,,,,,
Rajon Rondo,G,2013,Boston,East,East,yes,,yes,,,4,,,,,,,,,,,,,
Chris Bosh,F/C,2013,Miami,East,East,,yes,,,,8,,,,,,,,,,,,,
Brook Lopez,C,2013,Brooklyn,East,East,,,,,,1,,,,,,,,,,,,,
Joakim Noah,C,2013,Chicago,East,East,,,,,,1,,,,,,,,,,,,,
Jrue Holiday,G,2013,Philadelphia,East,East,,,,,,1,,,,,,,,,,,,,
Kyrie Irving,G,2013,Cleveland,East,East,,,,,,1,,,,,,,,,,,,,
Paul George,F,2013,Indiana,East,East,,,,,,1,,,,,,,,,,,,,
Tyson Chandler,C,2013,New York,East,East,,,,,,1,,,,,,,,,,,,,
Luol Deng,F,2013,Chicago,East,East,,,,,,2,,,,,,,,,,,,,
Blake Griffin,F,2013,Clippers,West,West,yes,yes,,,,3,,,,,,,,,,,,,
Kevin Durant,F,2013,Oklahoma City,West,West,yes,yes,,,,4,,,,,,,,,,,,,
Chris Paul,G,2013,Clippers,West,West,yes,yes,,,,6,,,,,,,,,,,,,
Dwight Howard,C,2013,Lakers,West,West,yes,yes,,,,7,,,,,,,,,,,,,
Kobe Bryant,G,2013,Lakers,West,West,yes,yes,,,,15,,,,,,,,,,,,,
James Harden,G,2013,Houston,West,West,,,,,,1,,,,,,,,,,,,,
David Lee,F,2013,Golden State,West,West,,,,,,2,,,,,,,,,,,,,
LaMarcus Aldridge,F,2013,Portland,West,West,,,,,,2,,,,,,,,,,,,,
Zach Randolph,F,2013,Memphis,West,West,,,,,,2,,,,,,,,,,,,,
Russell Westbrook,G,2013,Oklahoma City,West,West,,,,,,3,,,,,,,,,,,,,
Tony Parker,G,2013,San Antonio,West,West,,,,,,5,,,,,,,,,,,,,
Tim Duncan,F,2013,San Antonio,West,West,,,,,,14,,,,,,,,,,,,,
Kyrie Irving,G,2014,Cleveland,East,East,yes,yes,,,,2,,,,,,,,,,,,,
Paul George,F,2014,Indiana,East,East,yes,yes,,,,2,,,,,,,,,,,,,
Carmelo Anthony,F,2014,New York,East,East,yes,yes,,,,7,,,,,,,,,,,,,
Dwyane Wade,G,2014,Miami,East,East,yes,yes,,,,10,,,,,,,,,,,,,
LeBron James,F,2014,Miami,East,East,yes,yes,,,,10,,,,,,,,,,,,,
DeMar DeRozan,G,2014,Toronto,East,East,,,,,,1,,,,,,,,,,,,,
John Wall,G,2014,Washington,East,East,,,,,,1,,,,,,,,,,,,,
Paul Millsap,F,2014,Atlanta,East,East,,,,,,1,,,,,,,,,,,,,
Joakim Noah,C,2014,Chicago,East,East,,,,,,2,,,,,,,,,,,,,
Roy Hibbert,C,2014,Indiana,East,East,,,,,,2,,,,,,,,,,,,,
Joe Johnson,G,2014,Atlanta,East,East,,,,,,7,,,,,,,,,,,,,
Chris Bosh,F/C,2014,Miami,East,East,,,,,,9,,,,,,,,,,,,,
Stephen Curry,G,2014,Golden State,West,West,yes,yes,,,,1,,,,,,,,,,,,,
Kevin Love,F/C,2014,Minnesota,West,West,yes,yes,,,,3,,,,,,,,,,,,,
Blake Griffin,F,2014,Clippers,West,West,yes,yes,,,,4,,,,,,,,,,,,,
Kevin Durant,F,2014,Oklahoma City,West,West,yes,yes,,,,5,,,,,,,,,,,,,
Kobe Bryant,G,2014,Lakers,West,West,yes,,yes,,,16,,,,,,,,,,,,,
James Harden,G,2014,Houston,West,West,,yes,,,,2,,,,,,,,,,,,,
Anthony Davis,F/C,2014,New Orleans,West,West,,,,yes,,1,,,,,,,,,,,,,
Damian Lillard,G,2014,Portland,West,West,,,,,,1,,,,,,,,,,,,,
LaMarcus Aldridge,F,2014,Portland,West,West,,,,,,3,,,,,,,,,,,,,
Tony Parker,G,2014,San Antonio,West,West,,,,,,6,,,,,,,,,,,,,
Chris Paul,G,2014,Clippers,West,West,,,,,,7,,,,,,,,,,,,,
Dwight Howard,C,2014,Houston,West,West,,,,,,8,,,,,,,,,,,,,
Dirk Nowitzki,F,2014,Dallas,West,West,,,,,,12,,,,,,,,,,,,,
Kyle Lowry,G,2015,Toronto,East,East,yes,yes,,,,1,,,,,,,,,,,,,
John Wall,G,2015,Washington,East,East,yes,yes,,,,2,,,,,,,,,,,,,
Pau Gasol,F/C,2015,Chicago,East,East,yes,yes,,,,5,,,,,,,,,,,,,
Carmelo Anthony,F,2015,New York,East,East,yes,yes,,,,8,,,,,,,,,,,,,
LeBron James,F,2015,Cleveland,East,East,yes,yes,,,,11,,,,,,,,,,,,,
Jeff Teague,G,2015,Atlanta,East,East,,,,,,1,,,,,,,,,,,,,
Jimmy Butler,G/F,2015,Chicago,East,East,,,,,,1,,,,,,,,,,,,,
Kyle Korver,G/F,2015,Atlanta,East,East,,,,yes,,1,,,,,,,,,,,,,
Paul Millsap,F,2015,Atlanta,East,East,,,,,,2,,,,,,,,,,,,,
Al Horford,F/C,2015,Atlanta,East,East,,,,,,3,,,,,,,,,,,,,
Kyrie Irving,G,2015,Cleveland,East,East,,,,,,3,,,,,,,,,,,,,
Chris Bosh,F/C,2015,Miami,East,East,,,,,,10,,,,,,,,,,,,,
Dwyane Wade,G,2015,Miami,East,East,,,yes,,,11,,,,,,,,,,,,,
Marc Gasol,C,2015,Memphis,West,West,yes,yes,,,,2,,,,,,,,,,,,,
Stephen Curry,G,2015,Golden State,West,West,yes,yes,,,,2,,,,,,,,,,,,,
Anthony Davis,F/C,2015,New Orleans,West,West,yes,,yes,,,2,,,,,,,,,,,,,
Blake Griffin,F,2015,Clippers,West,West,yes,,yes,,,5,,,,,,,,,,,,,
Kobe Bryant,G,2015,Lakers,West,West,yes,,yes,,,17,,,,,,,,,,,,,
Klay Thompson,G,2015,Golden State,West,West,,yes,,,,1,,,,,,,,,,,,,
James Harden,G,2015,Houston,West,West,,yes,,,,3,,,,,,,,,,,,,
LaMarcus Aldridge,F/C,2015,Portland,West,West,,yes,,,,4,,,,,,,,,,,,,
DeMarcus Cousins,C,2015,Sacramento,West,West,,,,yes,,1,,,,,,,,,,,,,
Damian Lillard,G,2015,Portland,West,West,,,,yes,,2,,,,,,,,,,,,,
Russell Westbrook,G,2015,Oklahoma City,West,West,,,,,,4,,,,,,,,,,,,,
Kevin Durant,F,2015,Oklahoma City,West,West,,,,,,6,,,,,,,,,,,,,
Chris Paul,G,2015,Clippers,West,West,,,,,,8,,,,,,,,,,,,,
Dirk Nowitzki,F,2015,Dallas,West,West,,,,,,13,,,,,,,,,,,,,
Tim Duncan,F/C,2015,San Antonio,West,West,,,,,,15,,,,,,,,,,,,,
Dwyane Wade,G,2016,Miami,East,East,yes,yes,,,,12,,,,,,,,,,,,,
Kyle Lowry,G,2016,Toronto,East,East,yes,yes,,,,2,,,,,,,,,,,,,
LeBron James,F,2016,Cleveland,East,East,yes,yes,,,,12,,,,,,,,,,,,,
Paul George,F,2016,Indiana,East,East,yes,yes,,,,3,,,,,,,,,,,,,
Carmelo Anthony,F,2016,New York,East,East,yes,yes,,,,9,,,,,,,,,,,,,
Jimmy Butler,G/F,2016,Chicago,East,East,,,yes,,,2,,,,,,,,,,,,,
Chris Bosh,F/C,2016,Miami,East,East,,,yes,,,11,,,,,,,,,,,,,
John Wall,G,2016,Washington,East,East,,,,,,3,,,,,,,,,,,,,
Paul Millsap,F,2016,Atlanta,East,East,,,,,,3,,,,,,,,,,,,,
DeMar DeRozan,G,2016,Toronto,East,East,,,,,,2,,,,,,,,,,,,,
Andre Drummond,C,2016,Detroit,East,East,,,,,,1,,,,,,,,,,,,,
Isaiah Thomas,G,2016,Boston,East,East,,,,,,1,,,,,,,,,,,,,
Pau Gasol,F/C,2016,Chicago,East,East,,,,yes,,6,,,,,,,,,,,,,
Al Horford,F/C,2016,Atlanta,East,East,,,,yes,,4,,,,,,,,,,,,,
Stephen Curry,G,2016,Golden State,West,West,yes,yes,,,,3,,,,,,,,,,,,,
Russell Westbrook,G,2016,Oklahoma City,West,West,yes,yes,,,,5,,,,,,,,,,,,,
Kobe Bryant,G,2016,Lakers,West,West,yes,yes,,,,18,,,,,,,,,,,,,
Kevin Durant,F,2016,Oklahoma City,West,West,yes,yes,,,,7,,,,,,,,,,,,,
Kawhi Leonard,F,2016,San Antonio,West,West,yes,yes,,,,1,,,,,,,,,,,,,
Chris Paul,G,2016,Clippers,West,West,,,,,,9,,,,,,,,,,,,,
LaMarcus Aldridge,F/C,2016,San Antonio,West,West,,,,,,5,,,,,,,,,,,,,
James Harden,G,2016,Houston,West,West,,,,,,4,,,,,,,,,,,,,
Anthony Davis,F/C,2016,New Orleans,West,West,,,,,,3,,,,,,,,,,,,,
DeMarcus Cousins,C,2016,Sacramento,West,West,,,,,,2,,,,,,,,,,,,,
Klay Thompson,G,2016,Golden State,West,West,,,,,,2,,,,,,,,,,,,,
Draymond Green,F,2016,Golden State,West,West,,,,,,1,,,,,,,,,,,,,
Kyrie Irving,G,2017,Cleveland,East,East,yes,yes,,,,4,,,,,,,,,,,,,
DeMar DeRozan,G,2017,Toronto,East,East,yes,yes,,,,3,,,,,,,,,,,,,
LeBron James,F,2017,Cleveland,East,East,yes,yes,,,,13,,,,,,,,,,,,,
Jimmy Butler,F,2017,Chicago,East,East,yes,yes,,,,3,,,,,,,,,,,,,
Giannis Antetokounmpo,F/C,2017,Milwaukee,East,East,yes,yes,,,,1,,,,,,,,,,,,,
Isaiah Thomas,G,2017,Boston,East,East,,,,,,2,,,,,,,,,,,,,
John Wall,G,2017,Washington,East,East,,,,,,4,,,,,,,,,,,,,
Kevin Love,F/C,2017,Cleveland,East,East,,,yes,,,4,,,,,,,,,,,,,
Carmelo Anthony,F,2017,New York,East,East,,,,yes,,10,,,,,,,,,,,,,
Kyle Lowry,G,2017,Toronto,East,East,,,,,,3,,,,,,,,,,,,,
Paul George,F,2017,Indiana,East,East,,,,,,4,,,,,,,,,,,,,
Kemba Walker,G,2017,Charlotte,East,East,,,,,,1,,,,,,,,,,,,,
Paul Millsap,F,2017,Atlanta,East,East,,,,,,4,,,,,,,,,,,,,
Stephen Curry,G,2017,Golden State,West,West,yes,yes,,,,4,,,,,,,,,,,,,
James Harden,G,2017,Houston,West,West,yes,yes,,,,5,,,,,,,,,,,,,
Kevin Durant,F,2017,Golden State,West,West,yes,yes,,,,8,,,,,,,,,,,,,
Kawhi Leonard,F,2017,San Antonio,West,West,yes,yes,,,,2,,,,,,,,,,,,,
Anthony Davis,F/C,2017,New Orleans,West,West,yes,yes,,,,4,,,,,,,,,,,,,
Russell Westbrook,G,2017,Oklahoma City,West,West,,,,,,6,,,,,,,,,,,,,
Klay Thompson,G,2017,Golden State,West,West,,,,,,3,,,,,,,,,,,,,
Draymond Green,F,2017,Golden State,West,West,,,,,,2,,,,,,,,,,,,,
DeMarcus Cousins,C,2017,Sacramento,West,West,,,,,,3,,,,,,,,,,,,,
Marc Gasol,C,2017,Memphis,West,West,,,,,,3,,,,,,,,,,,,,
DeAndre Jordan,C,2017,Clippers,West,West,,,,,,1,,,,,,,,,,,,,
Gordon Hayward,F,2017,Utah,West,West,,,,,,1,,,,,,,,,,,,,
Kyrie Irving,G,2018,Boston,LeBron,East,yes,yes,,,,5,,,,,,,,,,,,,
DeMar DeRozan,G,2018,Toronto,Steph,East,yes,yes,,,,4,,,,,,,,,,,,,
LeBron James,F,2018,Cleveland,LeBron,East,yes,yes,,,,14,,,,,,,,,,,,,
Joel Embiid,C,2018,Philadelphia,Steph,East,yes,yes,,,,1,,,,,,,,,,,,,
Giannis Antetokounmpo,F/C,2018,Milwaukee,Steph,East,yes,yes,,,,2,,,,,,,,,,,,,
Bradley Beal,G,2018,Washington,LeBron,East,,,,,,1,,,,,,,,,,,,,
Goran Dragic,G,2018,Miami,LeBron,East,,,,yes,,1,,,,,,,,,,,,,
Al Horford,F/C,2018,Boston,Steph,East,,,,,,5,,,,,,,,,,,,,
Kevin Love,F/C,2018,Cleveland,LeBron,East,,,yes,,,5,,,,,,,,,,,,,
Kyle Lowry,G,2018,Toronto,Steph,East,,,,,,4,,,,,,,,,,,,,
Victor Oladipo,G,2018,Indiana,LeBron,East,,,,,,1,,,,,,,,,,,,,
Kristaps Porzingis,F/C,2018,New York,LeBron,East,,,yes,,,1,,,,,,,,,,,,,
John Wall,G,2018,Washington,LeBron,East,,,yes,,,5,,,,,,,,,,,,,
Andre Drummond,C,2018,Detroit,LeBron,East,,,,yes,,2,,,,,,,,,,,,,
Kemba Walker,G,2018,Charlotte,LeBron,East,,,,yes,,2,,,,,,,,,,,,,
Stephen Curry,G,2018,Golden State,Steph,West,yes,yes,,,,5,,,,,,,,,,,,,
James Harden,G,2018,Houston,Steph,West,yes,yes,,,,6,,,,,,,,,,,,,
Kevin Durant,F,2018,Golden State,LeBron,West,yes,yes,,,,9,,,,,,,,,,,,,
DeMarcus Cousins,C,2018,New Orleans,LeBron,West,yes,,yes,,,4,,,,,,,,,,,,,
Anthony Davis,F/C,2018,New Orleans,LeBron,West,yes,yes,,,,5,,,,,,,,,,,,,
Russell Westbrook,G,2018,Oklahoma City,LeBron,West,,yes,,,,7,,,,,,,,,,,,,
Damian Lillard,G,2018,Portland,Steph,West,,,,,,3,,,,,,,,,,,,,
Draymond Green,F,2018,Golden State,Steph,West,,,,,,3,,,,,,,,,,,,,
Karl-Anthony Towns,C,2018,Minnesota,Steph,West,,,,,,1,,,,,,,,,,,,,
LaMarcus Aldridge,F/C,2018,San Antonio,LeBron,West,,,,,,6,,,,,,,,,,,,,
Klay Thompson,G,2018,Golden State,Steph,West,,,,,,4,,,,,,,,,,,,,
Jimmy Butler,G/F,2018,Minnesota,Steph,West,,,,,,4,,,,,,,,,,,,,
Paul George,F,2018,Oklahoma City,LeBron,West,,,,yes,,5,,,,,,,,,,,,,
Kemba Walker,G,2019,Charlotte,Giannis,East,yes,yes,,,,3,,,,,,,,,,,,,
Kyrie Irving,G,2019,Boston,LeBron,East,yes,yes,,,,6,,,,,,,,,,,,,
Kawhi Leonard,F,2019,Toronto,LeBron,East,yes,yes,,,,3,,,,,,,,,,,,,
Giannis Antetokounmpo,F/C,2019,Milwaukee,Giannis,East,yes,yes,,,,3,,,,,,,,,,,,,
Joel Embiid,C,2019,Philadelphia,Giannis,East,yes,yes,,,,2,,,,,,,,,,,,,
Kyle Lowry,G,2019,Toronto,Giannis,East,,,,,,5,,,,,,,,,,,,,
Victor Oladipo,G,2019,Indiana,,East,,,yes,,,2,,,,,,,,,,,,,
Khris Middleton,F,2019,Milwaukee,Giannis,East,,,,,,1,,,,,,,,,,,,,
Bradley Beal,G,2019,Washington,LeBron,East,,,,,,2,,,,,,,,,,,,,
Ben Simmons,G/F,2019,Philadelphia,LeBron,East,,,,,,1,,,,,,,,,,,,,
Blake Griffin,F,2019,Detroit,Giannis,East,,,,,,6,,,,,,,,,,,,,
Nikola Vucevic,C,2019,Orlando,Giannis,East,,,,,,1,,,,,,,,,,,,,
Dwyane Wade,G,2019,Miami,LeBron,East,,,,yes,,13,,,,,,,,,,,,,
D'Angelo Russell,G,2019,Brooklyn,Giannis,East,,,,yes,,1,,,,,,,,,,,,,
Stephen Curry,G,2019,Golden State,Giannis,West,yes,yes,,,,6,,,,,,,,,,,,,
James Harden,G,2019,Houston,LeBron,West,yes,yes,,,,7,,,,,,,,,,,,,
Kevin Durant,F,2019,Golden State,LeBron,West,yes,yes,,,,10,,,,,,,,,,,,,
Paul George,F,2019,Oklahoma City,Giannis,West,yes,yes,,,,6,,,,,,,,,,,,,
Lebron James,F,2019,Lakers,LeBron,West,yes,yes,,,,15,,,,,,,,,,,,,
Russell Westbrook,G,2019,Oklahoma City,Giannis,West,,,,,,8,,,,,,,,,,,,,
Damian Lillard,G,2019,Portland,LeBron,West,,,,,,4,,,,,,,,,,,,,
Klay Thompson,G,2019,Golden State,LeBron,West,,,,,,5,,,,,,,,,,,,,
Anthony Davis,F/C,2019,New Orleans,LeBron,West,,,,,,6,,,,,,,,,,,,,
LaMarcus Aldridge,F/C,2019,San Antonio,LeBron,West,,,,,,7,,,,,,,,,,,,,
Nikola Jokic,C,2019,Denver,Giannis,West,,,,,,1,,,,,,,,,,,,,
Karl-Anthony Towns,C,2019,Minnesota,LeBron,West,,,,,,2,,,,,,,,,,,,,
Dirk Nowitzki,F,2019,Dallas,Giannis,West,,,,yes,,1,,,,,,,,,,,,,